^C:\USERS\DANIL\SOURCE\REPOS\FORCONSOLEAPPLICATION\FORCONSOLEAPPLICATION\FORCONSOLEAPPLICATION.CPP
C:\USERS\DANIL\SOURCE\REPOS\FORCONSOLEAPPLICATION\FORCONSOLEAPPLICATION\X64\DEBUG\VC143.PDB
C:\USERS\DANIL\SOURCE\REPOS\FORCONSOLEAPPLICATION\FORCONSOLEAPPLICATION\X64\DEBUG\VC143.IDB
C:\USERS\DANIL\SOURCE\REPOS\FORCONSOLEAPPLICATION\FORCONSOLEAPPLICATION\X64\DEBUG\FORCONSOLEAPPLICATION.OBJ
